reading,periodCutter,stdevLoTolerance,stdevHiTolerance,"timeRange_earliest","timeRange_latest","_time",count
"100UClick-thru Addon - A","dow==""Mon"",""Monday""","2.2","2.1","-y@y",now,1554456307,
"30Confused - HH   (UNIQUE)","dow==""Mon"",""Monday"" , match(dow,""^(Sat|Sun)$""),""Week-End""","2.5","2.5","-y@y",now,1554456675,
"100UClick-thru Addon - C","dow==""Mon"",""Monday"" , match(dow,""^(Sat|Sun)$""),""Week-End""","2.22","2.44","@y-y","@y",1554457763,
"88Comms: SMS - Funds","dow==""Mon"",""Monday"" , match(dow,""^(Sat|Sun)$""),""Week-End""","2.55","2.66","@y-y","@y",1554457875,
